    6700.00 0.00000e+00
    6710.00 1.30934e-04
    6720.00 3.27327e-04
    6730.00 7.20077e-04
    6740.00 1.37466e-03
    6750.00 2.42192e-03
    6760.00 4.12371e-03
    6770.00 6.67609e-03
    6780.00 1.04720e-02
    6790.00 1.59038e-02
    6800.00 2.31676e-02
    6810.00 3.27901e-02
    6820.00 4.47055e-02
    6830.00 5.88948e-02
    6840.00 7.56677e-02
    6850.00 9.45546e-02
    6860.00 1.15349e-01
    6870.00 1.37665e-01
    6880.00 1.61192e-01
    6890.00 1.88693e-01
    6900.00 2.17102e-01
    6910.00 2.46623e-01
    6920.00 2.76256e-01
    6930.00 3.05933e-01
    6940.00 3.34818e-01
    6950.00 3.62183e-01
    6960.00 3.89341e-01
    6970.00 4.15705e-01
    6980.00 4.40594e-01
    6990.00 4.60788e-01
    7000.00 4.79551e-01
    7010.00 4.96327e-01
    7020.00 5.11270e-01
    7030.00 5.24312e-01
    7040.00 5.35125e-01
    7050.00 5.46001e-01
    7060.00 5.55834e-01
    7070.00 5.63503e-01
    7080.00 5.69204e-01
    7090.00 5.76213e-01
    7100.00 5.79814e-01
    7110.00 5.83358e-01
    7120.00 5.88201e-01
    7130.00 5.92527e-01
    7140.00 5.95403e-01
    7150.00 5.88733e-01
    7160.00 5.82162e-01
    7170.00 5.74749e-01
    7180.00 5.67010e-01
    7190.00 5.74008e-01
    7200.00 5.81403e-01
    7210.00 5.88851e-01
    7220.00 5.96702e-01
    7230.00 6.01972e-01
    7240.00 6.04799e-01
    7250.00 6.06237e-01
    7260.00 6.09499e-01
    7270.00 6.12652e-01
    7280.00 6.13964e-01
    7290.00 6.16292e-01
    7300.00 6.17868e-01
    7310.00 6.23178e-01
    7320.00 6.30672e-01
    7330.00 6.36120e-01
    7340.00 6.40704e-01
    7350.00 6.42285e-01
    7360.00 6.42814e-01
    7370.00 6.40510e-01
    7380.00 6.37419e-01
    7390.00 6.37093e-01
    7400.00 6.37353e-01
    7410.00 6.37160e-01
    7420.00 6.37885e-01
    7430.00 6.35976e-01
    7440.00 6.35315e-01
    7450.00 6.35377e-01
    7460.00 6.35057e-01
    7470.00 6.35447e-01
    7480.00 6.36953e-01
    7490.00 6.38533e-01
    7500.00 6.38851e-01
    7510.00 6.40685e-01
    7520.00 6.42784e-01
    7530.00 6.42791e-01
    7540.00 6.43377e-01
    7550.00 6.44160e-01
    7560.00 6.44753e-01
    7570.00 6.46342e-01
    7580.00 6.33171e-01
    7590.00 5.84031e-01
    7600.00 4.25623e-01
    7610.00 3.60591e-01
    7620.00 4.67800e-01
    7630.00 4.35768e-01
    7640.00 4.47424e-01
    7650.00 4.96982e-01
    7660.00 5.52623e-01
    7670.00 5.89080e-01
    7680.00 6.36955e-01
    7690.00 6.37592e-01
    7700.00 6.41990e-01
    7710.00 6.39084e-01
    7720.00 6.33742e-01
    7730.00 6.35248e-01
    7740.00 6.36965e-01
    7750.00 6.35968e-01
    7760.00 6.38987e-01
    7770.00 6.42467e-01
    7780.00 6.42663e-01
    7790.00 6.40157e-01
    7800.00 6.40550e-01
    7810.00 6.41395e-01
    7820.00 6.42241e-01
    7830.00 6.46378e-01
    7840.00 6.48416e-01
    7850.00 6.50709e-01
    7860.00 6.54385e-01
    7870.00 6.54315e-01
    7884.60 6.51687e-01
    7897.50 6.50653e-01
    7910.30 6.49262e-01
    7923.20 6.47574e-01
    7936.00 6.45924e-01
    7948.90 6.44689e-01
    7961.80 6.43491e-01
    7974.60 6.42286e-01
    7987.50 6.41084e-01
    8000.30 6.39993e-01
    8013.20 6.36309e-01
    8026.00 6.32457e-01
    8038.90 6.28352e-01
    8051.70 6.24493e-01
    8064.60 6.20895e-01
    8077.40 6.17100e-01
    8090.30 6.13576e-01
    8103.20 6.09148e-01
    8116.00 5.98553e-01
    8128.90 5.87742e-01
    8141.70 5.78250e-01
    8154.60 5.75182e-01
    8167.40 5.71865e-01
    8180.30 5.68113e-01
    8193.10 5.63321e-01
    8206.00 5.58361e-01
    8218.90 5.53648e-01
    8231.70 5.48535e-01
    8244.60 5.42989e-01
    8257.40 5.37598e-01
    8270.30 5.32224e-01
    8283.10 5.26538e-01
    8296.00 5.20314e-01
    8308.80 5.17260e-01
    8321.70 5.15009e-01
    8334.60 5.11344e-01
    8347.40 5.05264e-01
    8360.30 4.91843e-01
    8373.10 4.73832e-01
    8386.00 4.51460e-01
    8398.80 4.24431e-01
    8411.70 3.92678e-01
    8424.50 3.56817e-01
    8437.40 3.17908e-01
    8450.30 2.77137e-01
    8463.10 2.36354e-01
    8476.00 1.96972e-01
    8488.80 1.60542e-01
    8501.70 1.28148e-01
    8514.50 1.00162e-01
    8527.40 7.69302e-02
    8540.20 5.81964e-02
    8553.10 4.35478e-02
    8565.90 3.23300e-02
    8578.80 2.38859e-02
    8591.70 1.77798e-02
    8604.50 1.33782e-02
    8617.40 1.01967e-02
    8630.20 7.95474e-03
    8643.10 6.40272e-03
    8655.90 5.33869e-03
    8668.80 4.58471e-03
    8681.60 4.00288e-03
    8694.50 3.56994e-03
    8707.40 3.25146e-03
    8720.20 2.98275e-03
    8733.10 2.75846e-03
    8745.90 2.60991e-03
    8758.80 2.50978e-03
    8771.60 2.44709e-03
    8784.50 2.38478e-03
    8797.30 2.33856e-03
    8810.20 2.30806e-03
    8823.10 2.25713e-03
    8835.90 2.17583e-03
    8848.80 2.06436e-03
    8861.60 1.98949e-03
    8874.50 1.95557e-03
    8887.30 1.94217e-03
    8900.20 1.90308e-03
    8913.00 1.82957e-03
    8925.90 1.77187e-03
    8938.80 1.71512e-03
    8951.60 1.64585e-03
    8964.50 1.55533e-03
    8977.30 1.44124e-03
    8990.20 1.33539e-03
    9003.00 1.28813e-03
    9015.90 1.25869e-03
    9028.70 1.22052e-03
    9041.60 1.18675e-03
    9054.40 1.16175e-03
    9067.30 1.12412e-03
    9080.20 1.01111e-03
    9093.00 8.57610e-04
    9105.90 6.94080e-04
    9118.70 5.33487e-04
    9131.60 3.88121e-04
    9144.40 2.57694e-04
    9157.30 1.41805e-04
    9170.10 3.61182e-05
    9183.00 0.00000e+00