    5390.00 0.00000e+00
    5400.00 4.36778e-04
    5410.00 1.25780e-03
    5420.00 2.73885e-03
    5430.00 5.43176e-03
    5440.00 1.02769e-02
    5450.00 1.79450e-02
    5460.00 2.86714e-02
    5470.00 4.33532e-02
    5480.00 6.19557e-02
    5490.00 8.39980e-02
    5500.00 1.08887e-01
    5510.00 1.35024e-01
    5520.00 1.62750e-01
    5530.00 1.91233e-01
    5540.00 2.17689e-01
    5550.00 2.42660e-01
    5560.00 2.67658e-01
    5570.00 2.91445e-01
    5580.00 3.13507e-01
    5590.00 3.33781e-01
    5600.00 3.52653e-01
    5610.00 3.70444e-01
    5620.00 3.87384e-01
    5630.00 4.02045e-01
    5640.00 4.13184e-01
    5650.00 4.24009e-01
    5660.00 4.34127e-01
    5670.00 4.42797e-01
    5680.00 4.51659e-01
    5690.00 4.61125e-01
    5700.00 4.65515e-01
    5710.00 4.69858e-01
    5720.00 4.77150e-01
    5730.00 4.84976e-01
    5740.00 4.92363e-01
    5750.00 4.99726e-01
    5760.00 5.06289e-01
    5770.00 5.11480e-01
    5780.00 5.15003e-01
    5790.00 5.19411e-01
    5800.00 5.24060e-01
    5810.00 5.27661e-01
    5820.00 5.30343e-01
    5830.00 5.31329e-01
    5840.00 5.32317e-01
    5850.00 5.33481e-01
    5860.00 5.33655e-01
    5870.00 5.34997e-01
    5880.00 5.37462e-01
    5890.00 5.40528e-01
    5900.00 5.43294e-01
    5910.00 5.45842e-01
    5920.00 5.48086e-01
    5930.00 5.49933e-01
    5940.00 5.52853e-01
    5950.00 5.55114e-01
    5960.00 5.56377e-01
    5970.00 5.58054e-01
    5980.00 5.59548e-01
    5990.00 5.59445e-01
    6006.00 5.59660e-01
    6015.70 5.60817e-01
    6025.30 5.61859e-01
    6035.00 5.62614e-01
    6044.60 5.62814e-01
    6054.30 5.62274e-01
    6063.90 5.60792e-01
    6073.60 5.58545e-01
    6083.20 5.55707e-01
    6092.90 5.52431e-01
    6102.50 5.48922e-01
    6112.20 5.45473e-01
    6121.80 5.42433e-01
    6131.50 5.40163e-01
    6141.10 5.38740e-01
    6150.80 5.38179e-01
    6160.40 5.38436e-01
    6170.10 5.39615e-01
    6179.70 5.41835e-01
    6189.40 5.45210e-01
    6199.00 5.49675e-01
    6208.70 5.54562e-01
    6218.30 5.60010e-01
    6228.00 5.66001e-01
    6237.60 5.72176e-01
    6247.30 5.78139e-01
    6256.90 5.83552e-01
    6266.60 5.88126e-01
    6276.20 5.91936e-01
    6285.90 5.95369e-01
    6295.50 5.98181e-01
    6305.20 6.00466e-01
    6314.80 6.02471e-01
    6324.50 6.04218e-01
    6334.20 6.05896e-01
    6343.80 6.07609e-01
    6353.50 6.09011e-01
    6363.10 6.09955e-01
    6372.80 6.10776e-01
    6382.40 6.11544e-01
    6392.10 6.12192e-01
    6401.70 6.12601e-01
    6411.40 6.12565e-01
    6421.00 6.12383e-01
    6430.70 6.12365e-01
    6440.30 6.12599e-01
    6450.00 6.12848e-01
    6459.60 6.12983e-01
    6469.30 6.13478e-01
    6478.90 6.14413e-01
    6488.60 6.15434e-01
    6498.20 6.16370e-01
    6507.90 6.16633e-01
    6517.50 6.16723e-01
    6527.20 6.17108e-01
    6536.80 6.17662e-01
    6546.50 6.17944e-01
    6556.10 6.18172e-01
    6565.80 6.18449e-01
    6575.40 6.18567e-01
    6585.10 6.18792e-01
    6594.70 6.18986e-01
    6604.40 6.18732e-01
    6614.00 6.18221e-01
    6623.70 6.17788e-01
    6633.30 6.17363e-01
    6643.00 6.17002e-01
    6652.60 6.16754e-01
    6662.30 6.16380e-01
    6671.90 6.15932e-01
    6681.60 6.15618e-01
    6691.20 6.15198e-01
    6700.90 6.14424e-01
    6710.50 6.13712e-01
    6720.20 6.13270e-01
    6729.80 6.12932e-01
    6739.50 6.12772e-01
    6749.10 6.12590e-01
    6758.80 6.12110e-01
    6768.40 6.11379e-01
    6778.10 6.09262e-01
    6787.70 6.05392e-01
    6797.40 6.00178e-01
    6807.10 5.94193e-01
    6816.70 5.87140e-01
    6826.40 5.74828e-01
    6836.00 5.59243e-01
    6845.70 5.42301e-01
    6855.30 5.25100e-01
    6865.00 5.07393e-01
    6874.60 4.88274e-01
    6884.30 4.70484e-01
    6893.90 4.54718e-01
    6903.60 4.36809e-01
    6913.20 4.16848e-01
    6922.90 3.94779e-01
    6932.50 3.70215e-01
    6942.20 3.43479e-01
    6951.80 3.15421e-01
    6961.50 2.86899e-01
    6971.10 2.58442e-01
    6980.80 2.30280e-01
    6990.40 2.01872e-01
    7000.10 1.75259e-01
    7009.70 1.51003e-01
    7019.40 1.29309e-01
    7029.00 1.10213e-01
    7038.70 9.36572e-02
    7048.30 7.94119e-02
    7058.00 6.72917e-02
    7067.60 5.71100e-02
    7077.30 4.85228e-02
    7086.90 4.12800e-02
    7096.60 3.52501e-02
    7106.20 3.02566e-02
    7115.90 2.60039e-02
    7125.50 2.23616e-02
    7135.20 1.93358e-02
    7144.80 1.66844e-02
    7154.50 1.43059e-02
    7164.10 1.22582e-02
    7173.80 9.99120e-03
    7183.40 7.91673e-03
    7193.10 6.22700e-03
    7202.70 4.74722e-03
    7212.40 3.43952e-03
    7222.00 2.26675e-03
    7231.70 1.22601e-03
    7241.30 3.73182e-04
    7251.00 0.00000e+00