3020.0  4.46988305945e-10  
3040.0  7.55209775439e-09  
3060.0  8.10504409704e-08  
3080.0  5.37720817741e-07  
3100.0  2.51401509931e-06  
3120.0  6.99806298808e-06  
3140.0  1.85189046874e-05  
3160.0  4.62730582014e-05  
3180.0  0.000112264660037  
3200.0  0.000261196349244  
3220.0  0.000473327469799  
3240.0  0.000941541102988  
3260.0  0.0022360815699  
3280.0  0.00616068639278  
3300.0  0.0163716416381  
3320.0  0.0345833440769  
3340.0  0.0630512830469  
3360.0  0.0992973462051  
3380.0  0.137973383467  
3400.0  0.174139075218  
3420.0  0.198714202755  
3440.0  0.217756081148  
3460.0  0.235449018825  
3480.0  0.254551204551  
3500.0  0.275753334858  
3520.0  0.293922194239  
3540.0  0.310423652623  
3560.0  0.324055694349  
3580.0  0.33385505583  
3600.0  0.342623823556  
3620.0  0.352445759553  
3640.0  0.361494910148  
3660.0  0.367753898946  
3680.0  0.366801300375  
3700.0  0.36061192468  
3720.0  0.352385975285  
3740.0  0.348642688513  
3760.0  0.355816371765  
3780.0  0.376222528461  
3800.0  0.406474813703  
3820.0  0.44489055273  
3840.0  0.482107133548  
3860.0  0.510340033332  
3880.0  0.52688051393  
3900.0  0.533857812357  
3920.0  0.53936680191  
3940.0  0.548956621811  
3960.0  0.56530599455  
3980.0  0.585462201654  
4000.0  0.604957652414  
4020.0  0.606981267884  
4040.0  0.595474233508  
4060.0  0.565153282171  
4080.0  0.511546497581  
4100.0  0.436567688614  
4120.0  0.346083950193  
4140.0  0.253057191798  
4160.0  0.17026790731  
4180.0  0.106159452076  
4200.0  0.0629537930087  
4220.0  0.0367226901269  
4240.0  0.0219261381745  
4260.0  0.0137159476868  
4280.0  0.00897772886052  
4300.0  0.00617264762399  
4320.0  0.00445120642954  
4340.0  0.00330894550401  
4360.0  0.00260697975863  
4380.0  0.00212566526741  
4400.0  0.00177217934046  
4420.0  0.00153243182686  
4440.0  0.00133694615526  
4460.0  0.00117739405782  
4480.0  0.00101514908743  
4500.0  0.000870119931887  
4520.0  0.000718826977166  
4540.0  0.000576214450907  
4560.0  0.00046357219705  
4580.0  0.000370824021644  
4600.0  0.000330209874832  
4620.0  0.000289023073653  
4640.0  0.000279712664451  
4660.0  0.000280979816145  
4680.0  0.000282145835941  
4700.0  0.000283503946479  
4720.0  0.000295483983855  
4740.0  0.000318375736234  
4760.0  0.000341507009807  
4780.0  0.000375762094049  
4800.0  0.000410250501297  
4820.0  0.000444998017927  
4840.0  0.000513289116486  
4860.0  0.000615481378069  
4880.0  0.000785434958821  
4900.0  0.00110237828509  
4920.0  0.00160037747492  
4940.0  0.00245006092303  
4960.0  0.00367546429816  
4980.0  0.00537901679044  
5000.0  0.00739130838726  
5020.0  0.0094366448884  
5040.0  0.0111775890417  
5060.0  0.0121756005022  
5080.0  0.0121635772385  
5100.0  0.0112062696031  
5120.0  0.00957182249462  
5140.0  0.00763149229991  
5160.0  0.00575377687213  
5180.0  0.00413798770982  
5200.0  0.00286304901604  
5220.0  0.00196233585609  
5240.0  0.00139952036659  
5260.0  0.00109515471661  
5280.0  0.00100418134121  
5300.0  0.00102465922473  
5320.0  0.00113398249628  
5340.0  0.00125416217535  
5360.0  0.00134103538727  
5380.0  0.00137158926487  
5400.0  0.00133522199904  
5420.0  0.00125485141098  
5440.0  0.00120820842418  
5460.0  0.00118398450759  
