    7899.80 0.00000e+00
    7914.00 1.11915e-04
    7928.30 3.29140e-04
    7942.60 5.85820e-04
    7956.80 8.29302e-04
    7971.10 1.11881e-03
    7985.40 1.45435e-03
    7999.70 1.79640e-03
    8013.90 2.02503e-03
    8028.20 2.28407e-03
    8042.50 2.59286e-03
    8056.80 2.89901e-03
    8071.00 3.27341e-03
    8085.30 3.67656e-03
    8099.60 4.21666e-03
    8113.80 4.79239e-03
    8128.10 5.36412e-03
    8142.40 6.03240e-03
    8156.70 6.91282e-03
    8170.90 7.98509e-03
    8185.20 9.15631e-03
    8199.50 1.05129e-02
    8213.80 1.20351e-02
    8228.00 1.39214e-02
    8242.30 1.62632e-02
    8256.60 1.90442e-02
    8270.80 2.22272e-02
    8285.10 2.60399e-02
    8299.40 3.06073e-02
    8313.70 3.66995e-02
    8327.90 4.42120e-02
    8342.20 5.30994e-02
    8356.50 6.37251e-02
    8370.80 7.60440e-02
    8385.00 9.04746e-02
    8399.30 1.07527e-01
    8413.60 1.26862e-01
    8427.80 1.48840e-01
    8442.10 1.74548e-01
    8456.40 2.01723e-01
    8470.70 2.30258e-01
    8484.90 2.60787e-01
    8499.20 2.91800e-01
    8513.50 3.21857e-01
    8527.80 3.52678e-01
    8542.00 3.82728e-01
    8556.30 4.12246e-01
    8570.60 4.34904e-01
    8584.80 4.53602e-01
    8599.10 4.73317e-01
    8613.40 4.89240e-01
    8627.70 4.99643e-01
    8641.90 5.05229e-01
    8656.20 5.09044e-01
    8670.50 5.15047e-01
    8684.70 5.18384e-01
    8699.00 5.17536e-01
    8713.30 5.16452e-01
    8727.60 5.14442e-01
    8741.80 5.11104e-01
    8756.10 5.06837e-01
    8770.40 5.02257e-01
    8784.70 4.97285e-01
    8798.90 4.92605e-01
    8813.20 4.88131e-01
    8827.50 4.84781e-01
    8841.70 4.82699e-01
    8856.00 4.80822e-01
    8870.30 4.79101e-01
    8884.60 4.77911e-01
    8898.80 4.76550e-01
    8913.10 4.66824e-01
    8927.40 4.55955e-01
    8941.70 4.44759e-01
    8955.90 4.33462e-01
    8970.20 4.21663e-01
    8984.50 4.13147e-01
    8998.70 4.12371e-01
    9013.00 4.10072e-01
    9027.30 4.07713e-01
    9041.60 4.05279e-01
    9055.80 4.03074e-01
    9070.10 3.99558e-01
    9084.40 3.95626e-01
    9098.70 3.91779e-01
    9112.90 3.87964e-01
    9127.20 3.84161e-01
    9141.50 3.80520e-01
    9155.70 3.76810e-01
    9170.00 3.72614e-01
    9184.30 3.68454e-01
    9198.60 3.64280e-01
    9212.80 3.59870e-01
    9227.10 3.55496e-01
    9241.40 3.51293e-01
    9255.70 3.47222e-01
    9269.90 3.33348e-01
    9284.20 3.15303e-01
    9298.50 2.97523e-01
    9312.70 2.80369e-01
    9327.00 2.63531e-01
    9341.30 2.46732e-01
    9355.60 2.37946e-01
    9369.80 2.41518e-01
    9384.10 2.44777e-01
    9398.40 2.47742e-01
    9412.70 2.50241e-01
    9426.90 2.47459e-01
    9441.20 2.39160e-01
    9455.50 2.30807e-01
    9469.70 2.28301e-01
    9484.00 2.28251e-01
    9498.30 2.28067e-01
    9512.60 2.23398e-01
    9526.80 2.18335e-01
    9541.10 2.13887e-01
    9555.40 2.14697e-01
    9569.60 2.15431e-01
    9583.90 2.16363e-01
    9598.20 2.17903e-01
    9612.50 2.19173e-01
    9626.70 2.20339e-01
    9641.00 2.21370e-01
    9655.30 2.22109e-01
    9669.60 2.22535e-01
    9683.80 2.22257e-01
    9698.10 2.21537e-01
    9712.40 2.14908e-01
    9726.60 2.07037e-01
    9740.90 1.99009e-01
    9755.20 1.94422e-01
    9769.50 1.89023e-01
    9783.70 1.82308e-01
    9798.00 1.74162e-01
    9812.30 1.64190e-01
    9826.60 1.52322e-01
    9840.80 1.39215e-01
    9855.10 1.25012e-01
    9869.40 1.09512e-01
    9883.60 9.37965e-02
    9897.90 7.89364e-02
    9912.20 6.55273e-02
    9926.50 5.38262e-02
    9940.70 4.36196e-02
    9955.00 3.50118e-02
    9969.30 2.79020e-02
    9983.60 2.21328e-02
    9997.80 1.75510e-02
   10012.10 1.40790e-02
   10026.40 1.13932e-02
   10040.60 9.20970e-03
   10054.90 7.51252e-03
   10069.20 6.21300e-03
   10083.50 5.21213e-03
   10097.70 4.35996e-03
   10112.00 3.68618e-03
   10126.30 3.13945e-03
   10140.60 2.65850e-03
   10154.80 2.21885e-03
   10169.10 1.84825e-03
   10183.40 1.53279e-03
   10197.60 1.27929e-03
   10211.90 1.09855e-03
   10226.20 9.31465e-04
   10240.50 8.04551e-04
   10254.70 7.06372e-04
   10269.00 6.19902e-04
   10283.30 5.65073e-04
   10297.60 4.95683e-04
   10311.80 4.57586e-04
   10326.10 4.17078e-04
   10340.40 3.70291e-04
   10354.60 3.22117e-04
   10368.90 2.73990e-04
   10383.20 2.54088e-04
   10397.50 2.16725e-04
   10411.70 1.89785e-04
   10426.00 1.58882e-04
   10440.30 1.40826e-04
   10454.50 1.34193e-04
   10468.80 1.23243e-04
   10483.10 1.02378e-04
   10497.40 7.32219e-05
   10511.60 7.04465e-05
   10525.90 7.28239e-05
   10540.20 7.65940e-05
   10554.50 7.16870e-05
   10568.70 6.52934e-05
   10583.00 5.91799e-05
   10597.30 5.60862e-05
   10611.50 5.83318e-05
   10625.80 5.14155e-05
   10640.10 4.03251e-05
   10654.40 3.01001e-05
   10668.60 2.19102e-05
   10682.90 1.58588e-05
   10697.20 1.00857e-05
   10711.50 5.97701e-06
   10725.70 2.38132e-06
   10740.00 0.00000e+00